<?xml version="1.0" encoding="utf-8"?>
<!DOCTYPE eagle SYSTEM "eagle.dtd">
<eagle version="7.6.0">
<drawing>
<settings>
<setting alwaysvectorfont="no"/>
<setting verticaltext="up"/>
</settings>
<grid distance="0.1" unitdist="inch" unit="inch" style="lines" multiple="1" display="no" altdistance="0.01" altunitdist="inch" altunit="inch"/>
<layers>
<layer number="1" name="Top" color="4" fill="1" visible="no" active="no"/>
<layer number="2" name="Route2" color="1" fill="3" visible="no" active="no"/>
<layer number="3" name="Route3" color="4" fill="3" visible="no" active="no"/>
<layer number="4" name="Route4" color="1" fill="4" visible="no" active="no"/>
<layer number="5" name="Route5" color="4" fill="4" visible="no" active="no"/>
<layer number="6" name="Route6" color="1" fill="8" visible="no" active="no"/>
<layer number="7" name="Route7" color="4" fill="8" visible="no" active="no"/>
<layer number="8" name="Route8" color="1" fill="2" visible="no" active="no"/>
<layer number="9" name="Route9" color="4" fill="2" visible="no" active="no"/>
<layer number="10" name="Route10" color="1" fill="7" visible="no" active="no"/>
<layer number="11" name="Route11" color="4" fill="7" visible="no" active="no"/>
<layer number="12" name="Route12" color="1" fill="5" visible="no" active="no"/>
<layer number="13" name="Route13" color="4" fill="5" visible="no" active="no"/>
<layer number="14" name="Route14" color="1" fill="6" visible="no" active="no"/>
<layer number="15" name="Route15" color="4" fill="6" visible="no" active="no"/>
<layer number="16" name="Bottom" color="1" fill="1" visible="no" active="no"/>
<layer number="17" name="Pads" color="2" fill="1" visible="no" active="no"/>
<layer number="18" name="Vias" color="2" fill="1" visible="no" active="no"/>
<layer number="19" name="Unrouted" color="6" fill="1" visible="no" active="no"/>
<layer number="20" name="Dimension" color="15" fill="1" visible="no" active="no"/>
<layer number="21" name="tPlace" color="7" fill="1" visible="no" active="no"/>
<layer number="22" name="bPlace" color="7" fill="1" visible="no" active="no"/>
<layer number="23" name="tOrigins" color="15" fill="1" visible="no" active="no"/>
<layer number="24" name="bOrigins" color="15" fill="1" visible="no" active="no"/>
<layer number="25" name="tNames" color="7" fill="1" visible="no" active="no"/>
<layer number="26" name="bNames" color="7" fill="1" visible="no" active="no"/>
<layer number="27" name="tValues" color="7" fill="1" visible="no" active="no"/>
<layer number="28" name="bValues" color="7" fill="1" visible="no" active="no"/>
<layer number="29" name="tStop" color="7" fill="3" visible="no" active="no"/>
<layer number="30" name="bStop" color="7" fill="6" visible="no" active="no"/>
<layer number="31" name="tCream" color="7" fill="4" visible="no" active="no"/>
<layer number="32" name="bCream" color="7" fill="5" visible="no" active="no"/>
<layer number="33" name="tFinish" color="6" fill="3" visible="no" active="no"/>
<layer number="34" name="bFinish" color="6" fill="6" visible="no" active="no"/>
<layer number="35" name="tGlue" color="7" fill="4" visible="no" active="no"/>
<layer number="36" name="bGlue" color="7" fill="5" visible="no" active="no"/>
<layer number="37" name="tTest" color="7" fill="1" visible="no" active="no"/>
<layer number="38" name="bTest" color="7" fill="1" visible="no" active="no"/>
<layer number="39" name="tKeepout" color="4" fill="11" visible="no" active="no"/>
<layer number="40" name="bKeepout" color="1" fill="11" visible="no" active="no"/>
<layer number="41" name="tRestrict" color="4" fill="10" visible="no" active="no"/>
<layer number="42" name="bRestrict" color="1" fill="10" visible="no" active="no"/>
<layer number="43" name="vRestrict" color="2" fill="10" visible="no" active="no"/>
<layer number="44" name="Drills" color="7" fill="1" visible="no" active="no"/>
<layer number="45" name="Holes" color="7" fill="1" visible="no" active="no"/>
<layer number="46" name="Milling" color="3" fill="1" visible="no" active="no"/>
<layer number="47" name="Measures" color="7" fill="1" visible="no" active="no"/>
<layer number="48" name="Document" color="7" fill="1" visible="no" active="no"/>
<layer number="49" name="Reference" color="7" fill="1" visible="no" active="no"/>
<layer number="51" name="tDocu" color="7" fill="1" visible="no" active="no"/>
<layer number="52" name="bDocu" color="7" fill="1" visible="no" active="no"/>
<layer number="90" name="Modules" color="5" fill="1" visible="yes" active="yes"/>
<layer number="91" name="Nets" color="2" fill="1" visible="yes" active="yes"/>
<layer number="92" name="Busses" color="1" fill="1" visible="yes" active="yes"/>
<layer number="93" name="Pins" color="2" fill="1" visible="no" active="yes"/>
<layer number="94" name="Symbols" color="4" fill="1" visible="yes" active="yes"/>
<layer number="95" name="Names" color="7" fill="1" visible="yes" active="yes"/>
<layer number="96" name="Values" color="7" fill="1" visible="yes" active="yes"/>
<layer number="97" name="Info" color="7" fill="1" visible="yes" active="yes"/>
<layer number="98" name="Guide" color="6" fill="1" visible="yes" active="yes"/>
</layers>
<schematic xreflabel="%F%N/%S.%C%R" xrefpart="/%S.%C%R">
<libraries>
<library name="pinhead">
<description>&lt;b&gt;Pin Header Connectors&lt;/b&gt;&lt;p&gt;
&lt;author&gt;Created by librarian@cadsoft.de&lt;/author&gt;</description>
<packages>
<package name="2X20">
<description>&lt;b&gt;PIN HEADER&lt;/b&gt;</description>
<wire x1="-25.4" y1="-1.905" x2="-24.765" y2="-2.54" width="0.1524" layer="21"/>
<wire x1="-24.765" y1="-2.54" x2="-23.495" y2="-2.54" width="0.1524" layer="21"/>
<wire x1="-23.495" y1="-2.54" x2="-22.86" y2="-1.905" width="0.1524" layer="21"/>
<wire x1="-22.86" y1="-1.905" x2="-22.225" y2="-2.54" width="0.1524" layer="21"/>
<wire x1="-22.225" y1="-2.54" x2="-20.955" y2="-2.54" width="0.1524" layer="21"/>
<wire x1="-20.955" y1="-2.54" x2="-20.32" y2="-1.905" width="0.1524" layer="21"/>
<wire x1="-20.32" y1="-1.905" x2="-19.685" y2="-2.54" width="0.1524" layer="21"/>
<wire x1="-19.685" y1="-2.54" x2="-18.415" y2="-2.54" width="0.1524" layer="21"/>
<wire x1="-18.415" y1="-2.54" x2="-17.78" y2="-1.905" width="0.1524" layer="21"/>
<wire x1="-17.78" y1="-1.905" x2="-17.145" y2="-2.54" width="0.1524" layer="21"/>
<wire x1="-17.145" y1="-2.54" x2="-15.875" y2="-2.54" width="0.1524" layer="21"/>
<wire x1="-15.875" y1="-2.54" x2="-15.24" y2="-1.905" width="0.1524" layer="21"/>
<wire x1="-15.24" y1="-1.905" x2="-14.605" y2="-2.54" width="0.1524" layer="21"/>
<wire x1="-14.605" y1="-2.54" x2="-13.335" y2="-2.54" width="0.1524" layer="21"/>
<wire x1="-13.335" y1="-2.54" x2="-12.7" y2="-1.905" width="0.1524" layer="21"/>
<wire x1="-12.7" y1="-1.905" x2="-12.065" y2="-2.54" width="0.1524" layer="21"/>
<wire x1="-12.065" y1="-2.54" x2="-10.795" y2="-2.54" width="0.1524" layer="21"/>
<wire x1="-10.795" y1="-2.54" x2="-10.16" y2="-1.905" width="0.1524" layer="21"/>
<wire x1="-25.4" y1="-1.905" x2="-25.4" y2="1.905" width="0.1524" layer="21"/>
<wire x1="-25.4" y1="1.905" x2="-24.765" y2="2.54" width="0.1524" layer="21"/>
<wire x1="-24.765" y1="2.54" x2="-23.495" y2="2.54" width="0.1524" layer="21"/>
<wire x1="-23.495" y1="2.54" x2="-22.86" y2="1.905" width="0.1524" layer="21"/>
<wire x1="-22.86" y1="1.905" x2="-22.225" y2="2.54" width="0.1524" layer="21"/>
<wire x1="-22.225" y1="2.54" x2="-20.955" y2="2.54" width="0.1524" layer="21"/>
<wire x1="-20.955" y1="2.54" x2="-20.32" y2="1.905" width="0.1524" layer="21"/>
<wire x1="-20.32" y1="1.905" x2="-19.685" y2="2.54" width="0.1524" layer="21"/>
<wire x1="-19.685" y1="2.54" x2="-18.415" y2="2.54" width="0.1524" layer="21"/>
<wire x1="-18.415" y1="2.54" x2="-17.78" y2="1.905" width="0.1524" layer="21"/>
<wire x1="-17.78" y1="1.905" x2="-17.145" y2="2.54" width="0.1524" layer="21"/>
<wire x1="-17.145" y1="2.54" x2="-15.875" y2="2.54" width="0.1524" layer="21"/>
<wire x1="-15.875" y1="2.54" x2="-15.24" y2="1.905" width="0.1524" layer="21"/>
<wire x1="-15.24" y1="1.905" x2="-14.605" y2="2.54" width="0.1524" layer="21"/>
<wire x1="-14.605" y1="2.54" x2="-13.335" y2="2.54" width="0.1524" layer="21"/>
<wire x1="-13.335" y1="2.54" x2="-12.7" y2="1.905" width="0.1524" layer="21"/>
<wire x1="-12.7" y1="1.905" x2="-12.065" y2="2.54" width="0.1524" layer="21"/>
<wire x1="-12.065" y1="2.54" x2="-10.795" y2="2.54" width="0.1524" layer="21"/>
<wire x1="-10.795" y1="2.54" x2="-10.16" y2="1.905" width="0.1524" layer="21"/>
<wire x1="-10.16" y1="1.905" x2="-9.525" y2="2.54" width="0.1524" layer="21"/>
<wire x1="-9.525" y1="2.54" x2="-8.255" y2="2.54" width="0.1524" layer="21"/>
<wire x1="-8.255" y1="2.54" x2="-7.62" y2="1.905" width="0.1524" layer="21"/>
<wire x1="-7.62" y1="1.905" x2="-6.985" y2="2.54" width="0.1524" layer="21"/>
<wire x1="-6.985" y1="2.54" x2="-5.715" y2="2.54" width="0.1524" layer="21"/>
<wire x1="-5.715" y1="2.54" x2="-5.08" y2="1.905" width="0.1524" layer="21"/>
<wire x1="-5.08" y1="1.905" x2="-4.445" y2="2.54" width="0.1524" layer="21"/>
<wire x1="-4.445" y1="2.54" x2="-3.175" y2="2.54" width="0.1524" layer="21"/>
<wire x1="-3.175" y1="2.54" x2="-2.54" y2="1.905" width="0.1524" layer="21"/>
<wire x1="-2.54" y1="1.905" x2="-1.905" y2="2.54" width="0.1524" layer="21"/>
<wire x1="-1.905" y1="2.54" x2="-0.635" y2="2.54" width="0.1524" layer="21"/>
<wire x1="-0.635" y1="2.54" x2="0" y2="1.905" width="0.1524" layer="21"/>
<wire x1="0" y1="1.905" x2="0.635" y2="2.54" width="0.1524" layer="21"/>
<wire x1="0.635" y1="2.54" x2="1.905" y2="2.54" width="0.1524" layer="21"/>
<wire x1="1.905" y1="2.54" x2="2.54" y2="1.905" width="0.1524" layer="21"/>
<wire x1="2.54" y1="1.905" x2="3.175" y2="2.54" width="0.1524" layer="21"/>
<wire x1="3.175" y1="2.54" x2="4.445" y2="2.54" width="0.1524" layer="21"/>
<wire x1="5.08" y1="1.905" x2="4.445" y2="2.54" width="0.1524" layer="21"/>
<wire x1="5.08" y1="1.905" x2="5.715" y2="2.54" width="0.1524" layer="21"/>
<wire x1="6.985" y1="2.54" x2="5.715" y2="2.54" width="0.1524" layer="21"/>
<wire x1="6.985" y1="2.54" x2="7.62" y2="1.905" width="0.1524" layer="21"/>
<wire x1="7.62" y1="1.905" x2="8.255" y2="2.54" width="0.1524" layer="21"/>
<wire x1="9.525" y1="2.54" x2="8.255" y2="2.54" width="0.1524" layer="21"/>
<wire x1="9.525" y1="2.54" x2="10.16" y2="1.905" width="0.1524" layer="21"/>
<wire x1="10.16" y1="1.905" x2="10.795" y2="2.54" width="0.1524" layer="21"/>
<wire x1="12.065" y1="2.54" x2="10.795" y2="2.54" width="0.1524" layer="21"/>
<wire x1="12.065" y1="2.54" x2="12.7" y2="1.905" width="0.1524" layer="21"/>
<wire x1="12.7" y1="1.905" x2="13.335" y2="2.54" width="0.1524" layer="21"/>
<wire x1="14.605" y1="2.54" x2="13.335" y2="2.54" width="0.1524" layer="21"/>
<wire x1="14.605" y1="2.54" x2="15.24" y2="1.905" width="0.1524" layer="21"/>
<wire x1="15.24" y1="1.905" x2="15.875" y2="2.54" width="0.1524" layer="21"/>
<wire x1="17.145" y1="2.54" x2="15.875" y2="2.54" width="0.1524" layer="21"/>
<wire x1="17.145" y1="2.54" x2="17.78" y2="1.905" width="0.1524" layer="21"/>
<wire x1="17.78" y1="1.905" x2="18.415" y2="2.54" width="0.1524" layer="21"/>
<wire x1="19.685" y1="2.54" x2="18.415" y2="2.54" width="0.1524" layer="21"/>
<wire x1="19.685" y1="2.54" x2="20.32" y2="1.905" width="0.1524" layer="21"/>
<wire x1="20.32" y1="1.905" x2="20.955" y2="2.54" width="0.1524" layer="21"/>
<wire x1="22.225" y1="2.54" x2="20.955" y2="2.54" width="0.1524" layer="21"/>
<wire x1="22.225" y1="2.54" x2="22.86" y2="1.905" width="0.1524" layer="21"/>
<wire x1="22.86" y1="-1.905" x2="22.225" y2="-2.54" width="0.1524" layer="21"/>
<wire x1="22.225" y1="-2.54" x2="20.955" y2="-2.54" width="0.1524" layer="21"/>
<wire x1="20.32" y1="-1.905" x2="20.955" y2="-2.54" width="0.1524" layer="21"/>
<wire x1="20.32" y1="-1.905" x2="19.685" y2="-2.54" width="0.1524" layer="21"/>
<wire x1="19.685" y1="-2.54" x2="18.415" y2="-2.54" width="0.1524" layer="21"/>
<wire x1="17.78" y1="-1.905" x2="18.415" y2="-2.54" width="0.1524" layer="21"/>
<wire x1="17.78" y1="-1.905" x2="17.145" y2="-2.54" width="0.1524" layer="21"/>
<wire x1="17.145" y1="-2.54" x2="15.875" y2="-2.54" width="0.1524" layer="21"/>
<wire x1="15.24" y1="-1.905" x2="15.875" y2="-2.54" width="0.1524" layer="21"/>
<wire x1="15.24" y1="-1.905" x2="14.605" y2="-2.54" width="0.1524" layer="21"/>
<wire x1="13.335" y1="-2.54" x2="14.605" y2="-2.54" width="0.1524" layer="21"/>
<wire x1="13.335" y1="-2.54" x2="12.7" y2="-1.905" width="0.1524" layer="21"/>
<wire x1="12.7" y1="-1.905" x2="12.065" y2="-2.54" width="0.1524" layer="21"/>
<wire x1="10.795" y1="-2.54" x2="12.065" y2="-2.54" width="0.1524" layer="21"/>
<wire x1="10.795" y1="-2.54" x2="10.16" y2="-1.905" width="0.1524" layer="21"/>
<wire x1="10.16" y1="-1.905" x2="9.525" y2="-2.54" width="0.1524" layer="21"/>
<wire x1="9.525" y1="-2.54" x2="8.255" y2="-2.54" width="0.1524" layer="21"/>
<wire x1="7.62" y1="-1.905" x2="8.255" y2="-2.54" width="0.1524" layer="21"/>
<wire x1="7.62" y1="-1.905" x2="6.985" y2="-2.54" width="0.1524" layer="21"/>
<wire x1="6.985" y1="-2.54" x2="5.715" y2="-2.54" width="0.1524" layer="21"/>
<wire x1="5.08" y1="-1.905" x2="5.715" y2="-2.54" width="0.1524" layer="21"/>
<wire x1="5.08" y1="-1.905" x2="4.445" y2="-2.54" width="0.1524" layer="21"/>
<wire x1="4.445" y1="-2.54" x2="3.175" y2="-2.54" width="0.1524" layer="21"/>
<wire x1="2.54" y1="-1.905" x2="3.175" y2="-2.54" width="0.1524" layer="21"/>
<wire x1="2.54" y1="-1.905" x2="1.905" y2="-2.54" width="0.1524" layer="21"/>
<wire x1="1.905" y1="-2.54" x2="0.635" y2="-2.54" width="0.1524" layer="21"/>
<wire x1="0" y1="-1.905" x2="0.635" y2="-2.54" width="0.1524" layer="21"/>
<wire x1="0" y1="-1.905" x2="-0.635" y2="-2.54" width="0.1524" layer="21"/>
<wire x1="-0.635" y1="-2.54" x2="-1.905" y2="-2.54" width="0.1524" layer="21"/>
<wire x1="-2.54" y1="-1.905" x2="-1.905" y2="-2.54" width="0.1524" layer="21"/>
<wire x1="-2.54" y1="-1.905" x2="-3.175" y2="-2.54" width="0.1524" layer="21"/>
<wire x1="-3.175" y1="-2.54" x2="-4.445" y2="-2.54" width="0.1524" layer="21"/>
<wire x1="-5.08" y1="-1.905" x2="-4.445" y2="-2.54" width="0.1524" layer="21"/>
<wire x1="-5.08" y1="-1.905" x2="-5.715" y2="-2.54" width="0.1524" layer="21"/>
<wire x1="-5.715" y1="-2.54" x2="-6.985" y2="-2.54" width="0.1524" layer="21"/>
<wire x1="-7.62" y1="-1.905" x2="-6.985" y2="-2.54" width="0.1524" layer="21"/>
<wire x1="-7.62" y1="-1.905" x2="-8.255" y2="-2.54" width="0.1524" layer="21"/>
<wire x1="-8.255" y1="-2.54" x2="-9.525" y2="-2.54" width="0.1524" layer="21"/>
<wire x1="-10.16" y1="-1.905" x2="-9.525" y2="-2.54" width="0.1524" layer="21"/>
<wire x1="-22.86" y1="1.905" x2="-22.86" y2="-1.905" width="0.1524" layer="21"/>
<wire x1="-20.32" y1="1.905" x2="-20.32" y2="-1.905" width="0.1524" layer="21"/>
<wire x1="-17.78" y1="1.905" x2="-17.78" y2="-1.905" width="0.1524" layer="21"/>
<wire x1="-15.24" y1="1.905" x2="-15.24" y2="-1.905" width="0.1524" layer="21"/>
<wire x1="-12.7" y1="1.905" x2="-12.7" y2="-1.905" width="0.1524" layer="21"/>
<wire x1="-10.16" y1="1.905" x2="-10.16" y2="-1.905" width="0.1524" layer="21"/>
<wire x1="-7.62" y1="1.905" x2="-7.62" y2="-1.905" width="0.1524" layer="21"/>
<wire x1="-5.08" y1="1.905" x2="-5.08" y2="-1.905" width="0.1524" layer="21"/>
<wire x1="-2.54" y1="1.905" x2="-2.54" y2="-1.905" width="0.1524" layer="21"/>
<wire x1="0" y1="1.905" x2="0" y2="-1.905" width="0.1524" layer="21"/>
<wire x1="2.54" y1="1.905" x2="2.54" y2="-1.905" width="0.1524" layer="21"/>
<wire x1="5.08" y1="1.905" x2="5.08" y2="-1.905" width="0.1524" layer="21"/>
<wire x1="7.62" y1="1.905" x2="7.62" y2="-1.905" width="0.1524" layer="21"/>
<wire x1="10.16" y1="1.905" x2="10.16" y2="-1.905" width="0.1524" layer="21"/>
<wire x1="12.7" y1="1.905" x2="12.7" y2="-1.905" width="0.1524" layer="21"/>
<wire x1="15.24" y1="1.905" x2="15.24" y2="-1.905" width="0.1524" layer="21"/>
<wire x1="17.78" y1="1.905" x2="17.78" y2="-1.905" width="0.1524" layer="21"/>
<wire x1="20.32" y1="1.905" x2="20.32" y2="-1.905" width="0.1524" layer="21"/>
<wire x1="22.86" y1="1.905" x2="22.86" y2="-1.905" width="0.1524" layer="21"/>
<wire x1="22.86" y1="1.905" x2="23.495" y2="2.54" width="0.1524" layer="21"/>
<wire x1="24.765" y1="2.54" x2="23.495" y2="2.54" width="0.1524" layer="21"/>
<wire x1="24.765" y1="2.54" x2="25.4" y2="1.905" width="0.1524" layer="21"/>
<wire x1="25.4" y1="-1.905" x2="24.765" y2="-2.54" width="0.1524" layer="21"/>
<wire x1="24.765" y1="-2.54" x2="23.495" y2="-2.54" width="0.1524" layer="21"/>
<wire x1="22.86" y1="-1.905" x2="23.495" y2="-2.54" width="0.1524" layer="21"/>
<wire x1="25.4" y1="1.905" x2="25.4" y2="-1.905" width="0.1524" layer="21"/>
<pad name="1" x="-24.13" y="-1.27" drill="1.016" shape="octagon"/>
<pad name="2" x="-24.13" y="1.27" drill="1.016" shape="octagon"/>
<pad name="3" x="-21.59" y="-1.27" drill="1.016" shape="octagon"/>
<pad name="4" x="-21.59" y="1.27" drill="1.016" shape="octagon"/>
<pad name="5" x="-19.05" y="-1.27" drill="1.016" shape="octagon"/>
<pad name="6" x="-19.05" y="1.27" drill="1.016" shape="octagon"/>
<pad name="7" x="-16.51" y="-1.27" drill="1.016" shape="octagon"/>
<pad name="8" x="-16.51" y="1.27" drill="1.016" shape="octagon"/>
<pad name="9" x="-13.97" y="-1.27" drill="1.016" shape="octagon"/>
<pad name="10" x="-13.97" y="1.27" drill="1.016" shape="octagon"/>
<pad name="11" x="-11.43" y="-1.27" drill="1.016" shape="octagon"/>
<pad name="12" x="-11.43" y="1.27" drill="1.016" shape="octagon"/>
<pad name="13" x="-8.89" y="-1.27" drill="1.016" shape="octagon"/>
<pad name="14" x="-8.89" y="1.27" drill="1.016" shape="octagon"/>
<pad name="15" x="-6.35" y="-1.27" drill="1.016" shape="octagon"/>
<pad name="16" x="-6.35" y="1.27" drill="1.016" shape="octagon"/>
<pad name="17" x="-3.81" y="-1.27" drill="1.016" shape="octagon"/>
<pad name="18" x="-3.81" y="1.27" drill="1.016" shape="octagon"/>
<pad name="19" x="-1.27" y="-1.27" drill="1.016" shape="octagon"/>
<pad name="20" x="-1.27" y="1.27" drill="1.016" shape="octagon"/>
<pad name="21" x="1.27" y="-1.27" drill="1.016" shape="octagon"/>
<pad name="22" x="1.27" y="1.27" drill="1.016" shape="octagon"/>
<pad name="23" x="3.81" y="-1.27" drill="1.016" shape="octagon"/>
<pad name="24" x="3.81" y="1.27" drill="1.016" shape="octagon"/>
<pad name="25" x="6.35" y="-1.27" drill="1.016" shape="octagon"/>
<pad name="26" x="6.35" y="1.27" drill="1.016" shape="octagon"/>
<pad name="27" x="8.89" y="-1.27" drill="1.016" shape="octagon"/>
<pad name="28" x="8.89" y="1.27" drill="1.016" shape="octagon"/>
<pad name="29" x="11.43" y="-1.27" drill="1.016" shape="octagon"/>
<pad name="30" x="11.43" y="1.27" drill="1.016" shape="octagon"/>
<pad name="31" x="13.97" y="-1.27" drill="1.016" shape="octagon"/>
<pad name="32" x="13.97" y="1.27" drill="1.016" shape="octagon"/>
<pad name="33" x="16.51" y="-1.27" drill="1.016" shape="octagon"/>
<pad name="34" x="16.51" y="1.27" drill="1.016" shape="octagon"/>
<pad name="35" x="19.05" y="-1.27" drill="1.016" shape="octagon"/>
<pad name="36" x="19.05" y="1.27" drill="1.016" shape="octagon"/>
<pad name="37" x="21.59" y="-1.27" drill="1.016" shape="octagon"/>
<pad name="38" x="21.59" y="1.27" drill="1.016" shape="octagon"/>
<pad name="39" x="24.13" y="-1.27" drill="1.016" shape="octagon"/>
<pad name="40" x="24.13" y="1.27" drill="1.016" shape="octagon"/>
<text x="-25.4" y="3.175" size="1.27" layer="25" ratio="10">&gt;NAME</text>
<text x="-25.4" y="-4.445" size="1.27" layer="27">&gt;VALUE</text>
<rectangle x1="-24.384" y1="-1.524" x2="-23.876" y2="-1.016" layer="51"/>
<rectangle x1="-24.384" y1="1.016" x2="-23.876" y2="1.524" layer="51"/>
<rectangle x1="-21.844" y1="1.016" x2="-21.336" y2="1.524" layer="51"/>
<rectangle x1="-21.844" y1="-1.524" x2="-21.336" y2="-1.016" layer="51"/>
<rectangle x1="-19.304" y1="1.016" x2="-18.796" y2="1.524" layer="51"/>
<rectangle x1="-19.304" y1="-1.524" x2="-18.796" y2="-1.016" layer="51"/>
<rectangle x1="-16.764" y1="1.016" x2="-16.256" y2="1.524" layer="51"/>
<rectangle x1="-14.224" y1="1.016" x2="-13.716" y2="1.524" layer="51"/>
<rectangle x1="-11.684" y1="1.016" x2="-11.176" y2="1.524" layer="51"/>
<rectangle x1="-16.764" y1="-1.524" x2="-16.256" y2="-1.016" layer="51"/>
<rectangle x1="-14.224" y1="-1.524" x2="-13.716" y2="-1.016" layer="51"/>
<rectangle x1="-11.684" y1="-1.524" x2="-11.176" y2="-1.016" layer="51"/>
<rectangle x1="-9.144" y1="1.016" x2="-8.636" y2="1.524" layer="51"/>
<rectangle x1="-9.144" y1="-1.524" x2="-8.636" y2="-1.016" layer="51"/>
<rectangle x1="-6.604" y1="1.016" x2="-6.096" y2="1.524" layer="51"/>
<rectangle x1="-6.604" y1="-1.524" x2="-6.096" y2="-1.016" layer="51"/>
<rectangle x1="-4.064" y1="1.016" x2="-3.556" y2="1.524" layer="51"/>
<rectangle x1="-4.064" y1="-1.524" x2="-3.556" y2="-1.016" layer="51"/>
<rectangle x1="-1.524" y1="1.016" x2="-1.016" y2="1.524" layer="51"/>
<rectangle x1="-1.524" y1="-1.524" x2="-1.016" y2="-1.016" layer="51"/>
<rectangle x1="1.016" y1="1.016" x2="1.524" y2="1.524" layer="51"/>
<rectangle x1="1.016" y1="-1.524" x2="1.524" y2="-1.016" layer="51"/>
<rectangle x1="3.556" y1="1.016" x2="4.064" y2="1.524" layer="51"/>
<rectangle x1="3.556" y1="-1.524" x2="4.064" y2="-1.016" layer="51"/>
<rectangle x1="6.096" y1="1.016" x2="6.604" y2="1.524" layer="51"/>
<rectangle x1="6.096" y1="-1.524" x2="6.604" y2="-1.016" layer="51"/>
<rectangle x1="8.636" y1="1.016" x2="9.144" y2="1.524" layer="51"/>
<rectangle x1="8.636" y1="-1.524" x2="9.144" y2="-1.016" layer="51"/>
<rectangle x1="11.176" y1="1.016" x2="11.684" y2="1.524" layer="51"/>
<rectangle x1="11.176" y1="-1.524" x2="11.684" y2="-1.016" layer="51"/>
<rectangle x1="13.716" y1="1.016" x2="14.224" y2="1.524" layer="51"/>
<rectangle x1="13.716" y1="-1.524" x2="14.224" y2="-1.016" layer="51"/>
<rectangle x1="16.256" y1="1.016" x2="16.764" y2="1.524" layer="51"/>
<rectangle x1="16.256" y1="-1.524" x2="16.764" y2="-1.016" layer="51"/>
<rectangle x1="18.796" y1="1.016" x2="19.304" y2="1.524" layer="51"/>
<rectangle x1="18.796" y1="-1.524" x2="19.304" y2="-1.016" layer="51"/>
<rectangle x1="21.336" y1="1.016" x2="21.844" y2="1.524" layer="51"/>
<rectangle x1="21.336" y1="-1.524" x2="21.844" y2="-1.016" layer="51"/>
<rectangle x1="23.876" y1="1.016" x2="24.384" y2="1.524" layer="51"/>
<rectangle x1="23.876" y1="-1.524" x2="24.384" y2="-1.016" layer="51"/>
</package>
<package name="2X20/90">
<description>&lt;b&gt;PIN HEADER&lt;/b&gt;</description>
<wire x1="-25.4" y1="-1.905" x2="-22.86" y2="-1.905" width="0.1524" layer="21"/>
<wire x1="-22.86" y1="-1.905" x2="-22.86" y2="0.635" width="0.1524" layer="21"/>
<wire x1="-22.86" y1="0.635" x2="-25.4" y2="0.635" width="0.1524" layer="21"/>
<wire x1="-25.4" y1="0.635" x2="-25.4" y2="-1.905" width="0.1524" layer="21"/>
<wire x1="-24.13" y1="6.985" x2="-24.13" y2="1.27" width="0.762" layer="21"/>
<wire x1="-22.86" y1="-1.905" x2="-20.32" y2="-1.905" width="0.1524" layer="21"/>
<wire x1="-20.32" y1="-1.905" x2="-20.32" y2="0.635" width="0.1524" layer="21"/>
<wire x1="-20.32" y1="0.635" x2="-22.86" y2="0.635" width="0.1524" layer="21"/>
<wire x1="-21.59" y1="6.985" x2="-21.59" y2="1.27" width="0.762" layer="21"/>
<wire x1="-20.32" y1="-1.905" x2="-17.78" y2="-1.905" width="0.1524" layer="21"/>
<wire x1="-17.78" y1="-1.905" x2="-17.78" y2="0.635" width="0.1524" layer="21"/>
<wire x1="-17.78" y1="0.635" x2="-20.32" y2="0.635" width="0.1524" layer="21"/>
<wire x1="-19.05" y1="6.985" x2="-19.05" y2="1.27" width="0.762" layer="21"/>
<wire x1="-17.78" y1="-1.905" x2="-15.24" y2="-1.905" width="0.1524" layer="21"/>
<wire x1="-15.24" y1="-1.905" x2="-15.24" y2="0.635" width="0.1524" layer="21"/>
<wire x1="-15.24" y1="0.635" x2="-17.78" y2="0.635" width="0.1524" layer="21"/>
<wire x1="-16.51" y1="6.985" x2="-16.51" y2="1.27" width="0.762" layer="21"/>
<wire x1="-15.24" y1="-1.905" x2="-12.7" y2="-1.905" width="0.1524" layer="21"/>
<wire x1="-12.7" y1="-1.905" x2="-12.7" y2="0.635" width="0.1524" layer="21"/>
<wire x1="-12.7" y1="0.635" x2="-15.24" y2="0.635" width="0.1524" layer="21"/>
<wire x1="-13.97" y1="6.985" x2="-13.97" y2="1.27" width="0.762" layer="21"/>
<wire x1="-12.7" y1="-1.905" x2="-10.16" y2="-1.905" width="0.1524" layer="21"/>
<wire x1="-10.16" y1="-1.905" x2="-10.16" y2="0.635" width="0.1524" layer="21"/>
<wire x1="-10.16" y1="0.635" x2="-12.7" y2="0.635" width="0.1524" layer="21"/>
<wire x1="-11.43" y1="6.985" x2="-11.43" y2="1.27" width="0.762" layer="21"/>
<wire x1="-10.16" y1="-1.905" x2="-7.62" y2="-1.905" width="0.1524" layer="21"/>
<wire x1="-7.62" y1="-1.905" x2="-7.62" y2="0.635" width="0.1524" layer="21"/>
<wire x1="-7.62" y1="0.635" x2="-10.16" y2="0.635" width="0.1524" layer="21"/>
<wire x1="-8.89" y1="6.985" x2="-8.89" y2="1.27" width="0.762" layer="21"/>
<wire x1="-7.62" y1="-1.905" x2="-5.08" y2="-1.905" width="0.1524" layer="21"/>
<wire x1="-5.08" y1="-1.905" x2="-5.08" y2="0.635" width="0.1524" layer="21"/>
<wire x1="-5.08" y1="0.635" x2="-7.62" y2="0.635" width="0.1524" layer="21"/>
<wire x1="-6.35" y1="6.985" x2="-6.35" y2="1.27" width="0.762" layer="21"/>
<wire x1="-5.08" y1="-1.905" x2="-2.54" y2="-1.905" width="0.1524" layer="21"/>
<wire x1="-2.54" y1="-1.905" x2="-2.54" y2="0.635" width="0.1524" layer="21"/>
<wire x1="-2.54" y1="0.635" x2="-5.08" y2="0.635" width="0.1524" layer="21"/>
<wire x1="-3.81" y1="6.985" x2="-3.81" y2="1.27" width="0.762" layer="21"/>
<wire x1="-2.54" y1="-1.905" x2="0" y2="-1.905" width="0.1524" layer="21"/>
<wire x1="0" y1="-1.905" x2="0" y2="0.635" width="0.1524" layer="21"/>
<wire x1="0" y1="0.635" x2="-2.54" y2="0.635" width="0.1524" layer="21"/>
<wire x1="-1.27" y1="6.985" x2="-1.27" y2="1.27" width="0.762" layer="21"/>
<wire x1="0" y1="-1.905" x2="2.54" y2="-1.905" width="0.1524" layer="21"/>
<wire x1="2.54" y1="-1.905" x2="2.54" y2="0.635" width="0.1524" layer="21"/>
<wire x1="2.54" y1="0.635" x2="0" y2="0.635" width="0.1524" layer="21"/>
<wire x1="1.27" y1="6.985" x2="1.27" y2="1.27" width="0.762" layer="21"/>
<wire x1="2.54" y1="-1.905" x2="5.08" y2="-1.905" width="0.1524" layer="21"/>
<wire x1="5.08" y1="-1.905" x2="5.08" y2="0.635" width="0.1524" layer="21"/>
<wire x1="5.08" y1="0.635" x2="2.54" y2="0.635" width="0.1524" layer="21"/>
<wire x1="3.81" y1="6.985" x2="3.81" y2="1.27" width="0.762" layer="21"/>
<wire x1="5.08" y1="-1.905" x2="7.62" y2="-1.905" width="0.1524" layer="21"/>
<wire x1="7.62" y1="-1.905" x2="7.62" y2="0.635" width="0.1524" layer="21"/>
<wire x1="7.62" y1="0.635" x2="5.08" y2="0.635" width="0.1524" layer="21"/>
<wire x1="6.35" y1="6.985" x2="6.35" y2="1.27" width="0.762" layer="21"/>
<wire x1="7.62" y1="-1.905" x2="10.16" y2="-1.905" width="0.1524" layer="21"/>
<wire x1="10.16" y1="-1.905" x2="10.16" y2="0.635" width="0.1524" layer="21"/>
<wire x1="10.16" y1="0.635" x2="7.62" y2="0.635" width="0.1524" layer="21"/>
<wire x1="8.89" y1="6.985" x2="8.89" y2="1.27" width="0.762" layer="21"/>
<wire x1="10.16" y1="-1.905" x2="12.7" y2="-1.905" width="0.1524" layer="21"/>
<wire x1="12.7" y1="-1.905" x2="12.7" y2="0.635" width="0.1524" layer="21"/>
<wire x1="12.7" y1="0.635" x2="10.16" y2="0.635" width="0.1524" layer="21"/>
<wire x1="11.43" y1="6.985" x2="11.43" y2="1.27" width="0.762" layer="21"/>
<wire x1="12.7" y1="-1.905" x2="15.24" y2="-1.905" width="0.1524" layer="21"/>
<wire x1="15.24" y1="-1.905" x2="15.24" y2="0.635" width="0.1524" layer="21"/>
<wire x1="15.24" y1="0.635" x2="12.7" y2="0.635" width="0.1524" layer="21"/>
<wire x1="13.97" y1="6.985" x2="13.97" y2="1.27" width="0.762" layer="21"/>
<wire x1="15.24" y1="-1.905" x2="17.78" y2="-1.905" width="0.1524" layer="21"/>
<wire x1="17.78" y1="-1.905" x2="17.78" y2="0.635" width="0.1524" layer="21"/>
<wire x1="17.78" y1="0.635" x2="15.24" y2="0.635" width="0.1524" layer="21"/>
<wire x1="16.51" y1="6.985" x2="16.51" y2="1.27" width="0.762" layer="21"/>
<wire x1="17.78" y1="-1.905" x2="20.32" y2="-1.905" width="0.1524" layer="21"/>
<wire x1="20.32" y1="-1.905" x2="20.32" y2="0.635" width="0.1524" layer="21"/>
<wire x1="20.32" y1="0.635" x2="17.78" y2="0.635" width="0.1524" layer="21"/>
<wire x1="19.05" y1="6.985" x2="19.05" y2="1.27" width="0.762" layer="21"/>
<wire x1="20.32" y1="-1.905" x2="22.86" y2="-1.905" width="0.1524" layer="21"/>
<wire x1="22.86" y1="-1.905" x2="22.86" y2="0.635" width="0.1524" layer="21"/>
<wire x1="22.86" y1="0.635" x2="20.32" y2="0.635" width="0.1524" layer="21"/>
<wire x1="21.59" y1="6.985" x2="21.59" y2="1.27" width="0.762" layer="21"/>
<wire x1="22.86" y1="-1.905" x2="25.4" y2="-1.905" width="0.1524" layer="21"/>
<wire x1="25.4" y1="-1.905" x2="25.4" y2="0.635" width="0.1524" layer="21"/>
<wire x1="25.4" y1="0.635" x2="22.86" y2="0.635" width="0.1524" layer="21"/>
<wire x1="24.13" y1="6.985" x2="24.13" y2="1.27" width="0.762" layer="21"/>
<pad name="2" x="-24.13" y="-3.81" drill="1.016" shape="octagon"/>
<pad name="4" x="-21.59" y="-3.81" drill="1.016" shape="octagon"/>
<pad name="6" x="-19.05" y="-3.81" drill="1.016" shape="octagon"/>
<pad name="8" x="-16.51" y="-3.81" drill="1.016" shape="octagon"/>
<pad name="10" x="-13.97" y="-3.81" drill="1.016" shape="octagon"/>
<pad name="12" x="-11.43" y="-3.81" drill="1.016" shape="octagon"/>
<pad name="14" x="-8.89" y="-3.81" drill="1.016" shape="octagon"/>
<pad name="16" x="-6.35" y="-3.81" drill="1.016" shape="octagon"/>
<pad name="18" x="-3.81" y="-3.81" drill="1.016" shape="octagon"/>
<pad name="20" x="-1.27" y="-3.81" drill="1.016" shape="octagon"/>
<pad name="22" x="1.27" y="-3.81" drill="1.016" shape="octagon"/>
<pad name="24" x="3.81" y="-3.81" drill="1.016" shape="octagon"/>
<pad name="26" x="6.35" y="-3.81" drill="1.016" shape="octagon"/>
<pad name="28" x="8.89" y="-3.81" drill="1.016" shape="octagon"/>
<pad name="30" x="11.43" y="-3.81" drill="1.016" shape="octagon"/>
<pad name="32" x="13.97" y="-3.81" drill="1.016" shape="octagon"/>
<pad name="34" x="16.51" y="-3.81" drill="1.016" shape="octagon"/>
<pad name="36" x="19.05" y="-3.81" drill="1.016" shape="octagon"/>
<pad name="38" x="21.59" y="-3.81" drill="1.016" shape="octagon"/>
<pad name="1" x="-24.13" y="-6.35" drill="1.016" shape="octagon"/>
<pad name="3" x="-21.59" y="-6.35" drill="1.016" shape="octagon"/>
<pad name="5" x="-19.05" y="-6.35" drill="1.016" shape="octagon"/>
<pad name="7" x="-16.51" y="-6.35" drill="1.016" shape="octagon"/>
<pad name="9" x="-13.97" y="-6.35" drill="1.016" shape="octagon"/>
<pad name="11" x="-11.43" y="-6.35" drill="1.016" shape="octagon"/>
<pad name="13" x="-8.89" y="-6.35" drill="1.016" shape="octagon"/>
<pad name="15" x="-6.35" y="-6.35" drill="1.016" shape="octagon"/>
<pad name="17" x="-3.81" y="-6.35" drill="1.016" shape="octagon"/>
<pad name="19" x="-1.27" y="-6.35" drill="1.016" shape="octagon"/>
<pad name="21" x="1.27" y="-6.35" drill="1.016" shape="octagon"/>
<pad name="23" x="3.81" y="-6.35" drill="1.016" shape="octagon"/>
<pad name="25" x="6.35" y="-6.35" drill="1.016" shape="octagon"/>
<pad name="27" x="8.89" y="-6.35" drill="1.016" shape="octagon"/>
<pad name="29" x="11.43" y="-6.35" drill="1.016" shape="octagon"/>
<pad name="31" x="13.97" y="-6.35" drill="1.016" shape="octagon"/>
<pad name="33" x="16.51" y="-6.35" drill="1.016" shape="octagon"/>
<pad name="35" x="19.05" y="-6.35" drill="1.016" shape="octagon"/>
<pad name="37" x="21.59" y="-6.35" drill="1.016" shape="octagon"/>
<pad name="40" x="24.13" y="-3.81" drill="1.016" shape="octagon"/>
<pad name="39" x="24.13" y="-6.35" drill="1.016" shape="octagon"/>
<text x="-26.035" y="-3.81" size="1.27" layer="25" ratio="10" rot="R90">&gt;NAME</text>
<text x="27.305" y="-3.81" size="1.27" layer="27" rot="R90">&gt;VALUE</text>
<rectangle x1="-24.511" y1="0.635" x2="-23.749" y2="1.143" layer="21"/>
<rectangle x1="-21.971" y1="0.635" x2="-21.209" y2="1.143" layer="21"/>
<rectangle x1="-19.431" y1="0.635" x2="-18.669" y2="1.143" layer="21"/>
<rectangle x1="-16.891" y1="0.635" x2="-16.129" y2="1.143" layer="21"/>
<rectangle x1="-14.351" y1="0.635" x2="-13.589" y2="1.143" layer="21"/>
<rectangle x1="-11.811" y1="0.635" x2="-11.049" y2="1.143" layer="21"/>
<rectangle x1="-9.271" y1="0.635" x2="-8.509" y2="1.143" layer="21"/>
<rectangle x1="-6.731" y1="0.635" x2="-5.969" y2="1.143" layer="21"/>
<rectangle x1="-4.191" y1="0.635" x2="-3.429" y2="1.143" layer="21"/>
<rectangle x1="-1.651" y1="0.635" x2="-0.889" y2="1.143" layer="21"/>
<rectangle x1="0.889" y1="0.635" x2="1.651" y2="1.143" layer="21"/>
<rectangle x1="3.429" y1="0.635" x2="4.191" y2="1.143" layer="21"/>
<rectangle x1="5.969" y1="0.635" x2="6.731" y2="1.143" layer="21"/>
<rectangle x1="8.509" y1="0.635" x2="9.271" y2="1.143" layer="21"/>
<rectangle x1="11.049" y1="0.635" x2="11.811" y2="1.143" layer="21"/>
<rectangle x1="13.589" y1="0.635" x2="14.351" y2="1.143" layer="21"/>
<rectangle x1="16.129" y1="0.635" x2="16.891" y2="1.143" layer="21"/>
<rectangle x1="18.669" y1="0.635" x2="19.431" y2="1.143" layer="21"/>
<rectangle x1="21.209" y1="0.635" x2="21.971" y2="1.143" layer="21"/>
<rectangle x1="23.749" y1="0.635" x2="24.511" y2="1.143" layer="21"/>
<rectangle x1="-24.511" y1="-2.921" x2="-23.749" y2="-1.905" layer="21"/>
<rectangle x1="-21.971" y1="-2.921" x2="-21.209" y2="-1.905" layer="21"/>
<rectangle x1="-24.511" y1="-5.461" x2="-23.749" y2="-4.699" layer="21"/>
<rectangle x1="-24.511" y1="-4.699" x2="-23.749" y2="-2.921" layer="51"/>
<rectangle x1="-21.971" y1="-4.699" x2="-21.209" y2="-2.921" layer="51"/>
<rectangle x1="-21.971" y1="-5.461" x2="-21.209" y2="-4.699" layer="21"/>
<rectangle x1="-19.431" y1="-2.921" x2="-18.669" y2="-1.905" layer="21"/>
<rectangle x1="-16.891" y1="-2.921" x2="-16.129" y2="-1.905" layer="21"/>
<rectangle x1="-19.431" y1="-5.461" x2="-18.669" y2="-4.699" layer="21"/>
<rectangle x1="-19.431" y1="-4.699" x2="-18.669" y2="-2.921" layer="51"/>
<rectangle x1="-16.891" y1="-4.699" x2="-16.129" y2="-2.921" layer="51"/>
<rectangle x1="-16.891" y1="-5.461" x2="-16.129" y2="-4.699" layer="21"/>
<rectangle x1="-14.351" y1="-2.921" x2="-13.589" y2="-1.905" layer="21"/>
<rectangle x1="-14.351" y1="-5.461" x2="-13.589" y2="-4.699" layer="21"/>
<rectangle x1="-14.351" y1="-4.699" x2="-13.589" y2="-2.921" layer="51"/>
<rectangle x1="-11.811" y1="-2.921" x2="-11.049" y2="-1.905" layer="21"/>
<rectangle x1="-9.271" y1="-2.921" x2="-8.509" y2="-1.905" layer="21"/>
<rectangle x1="-11.811" y1="-5.461" x2="-11.049" y2="-4.699" layer="21"/>
<rectangle x1="-11.811" y1="-4.699" x2="-11.049" y2="-2.921" layer="51"/>
<rectangle x1="-9.271" y1="-4.699" x2="-8.509" y2="-2.921" layer="51"/>
<rectangle x1="-9.271" y1="-5.461" x2="-8.509" y2="-4.699" layer="21"/>
<rectangle x1="-6.731" y1="-2.921" x2="-5.969" y2="-1.905" layer="21"/>
<rectangle x1="-4.191" y1="-2.921" x2="-3.429" y2="-1.905" layer="21"/>
<rectangle x1="-6.731" y1="-5.461" x2="-5.969" y2="-4.699" layer="21"/>
<rectangle x1="-6.731" y1="-4.699" x2="-5.969" y2="-2.921" layer="51"/>
<rectangle x1="-4.191" y1="-4.699" x2="-3.429" y2="-2.921" layer="51"/>
<rectangle x1="-4.191" y1="-5.461" x2="-3.429" y2="-4.699" layer="21"/>
<rectangle x1="-1.651" y1="-2.921" x2="-0.889" y2="-1.905" layer="21"/>
<rectangle x1="-1.651" y1="-5.461" x2="-0.889" y2="-4.699" layer="21"/>
<rectangle x1="-1.651" y1="-4.699" x2="-0.889" y2="-2.921" layer="51"/>
<rectangle x1="0.889" y1="-2.921" x2="1.651" y2="-1.905" layer="21"/>
<rectangle x1="3.429" y1="-2.921" x2="4.191" y2="-1.905" layer="21"/>
<rectangle x1="0.889" y1="-5.461" x2="1.651" y2="-4.699" layer="21"/>
<rectangle x1="0.889" y1="-4.699" x2="1.651" y2="-2.921" layer="51"/>
<rectangle x1="3.429" y1="-4.699" x2="4.191" y2="-2.921" layer="51"/>
<rectangle x1="3.429" y1="-5.461" x2="4.191" y2="-4.699" layer="21"/>
<rectangle x1="5.969" y1="-2.921" x2="6.731" y2="-1.905" layer="21"/>
<rectangle x1="8.509" y1="-2.921" x2="9.271" y2="-1.905" layer="21"/>
<rectangle x1="5.969" y1="-5.461" x2="6.731" y2="-4.699" layer="21"/>
<rectangle x1="5.969" y1="-4.699" x2="6.731" y2="-2.921" layer="51"/>
<rectangle x1="8.509" y1="-4.699" x2="9.271" y2="-2.921" layer="51"/>
<rectangle x1="8.509" y1="-5.461" x2="9.271" y2="-4.699" layer="21"/>
<rectangle x1="11.049" y1="-2.921" x2="11.811" y2="-1.905" layer="21"/>
<rectangle x1="11.049" y1="-5.461" x2="11.811" y2="-4.699" layer="21"/>
<rectangle x1="11.049" y1="-4.699" x2="11.811" y2="-2.921" layer="51"/>
<rectangle x1="13.589" y1="-2.921" x2="14.351" y2="-1.905" layer="21"/>
<rectangle x1="16.129" y1="-2.921" x2="16.891" y2="-1.905" layer="21"/>
<rectangle x1="13.589" y1="-5.461" x2="14.351" y2="-4.699" layer="21"/>
<rectangle x1="13.589" y1="-4.699" x2="14.351" y2="-2.921" layer="51"/>
<rectangle x1="16.129" y1="-4.699" x2="16.891" y2="-2.921" layer="51"/>
<rectangle x1="16.129" y1="-5.461" x2="16.891" y2="-4.699" layer="21"/>
<rectangle x1="18.669" y1="-2.921" x2="19.431" y2="-1.905" layer="21"/>
<rectangle x1="21.209" y1="-2.921" x2="21.971" y2="-1.905" layer="21"/>
<rectangle x1="18.669" y1="-5.461" x2="19.431" y2="-4.699" layer="21"/>
<rectangle x1="18.669" y1="-4.699" x2="19.431" y2="-2.921" layer="51"/>
<rectangle x1="21.209" y1="-4.699" x2="21.971" y2="-2.921" layer="51"/>
<rectangle x1="21.209" y1="-5.461" x2="21.971" y2="-4.699" layer="21"/>
<rectangle x1="23.749" y1="-2.921" x2="24.511" y2="-1.905" layer="21"/>
<rectangle x1="23.749" y1="-5.461" x2="24.511" y2="-4.699" layer="21"/>
<rectangle x1="23.749" y1="-4.699" x2="24.511" y2="-2.921" layer="51"/>
</package>
</packages>
<symbols>
<symbol name="PINH2X20">
<wire x1="-6.35" y1="-27.94" x2="8.89" y2="-27.94" width="0.4064" layer="94"/>
<wire x1="8.89" y1="-27.94" x2="8.89" y2="25.4" width="0.4064" layer="94"/>
<wire x1="8.89" y1="25.4" x2="-6.35" y2="25.4" width="0.4064" layer="94"/>
<wire x1="-6.35" y1="25.4" x2="-6.35" y2="-27.94" width="0.4064" layer="94"/>
<text x="-6.35" y="26.035" size="1.778" layer="95">&gt;NAME</text>
<text x="-6.35" y="-30.48" size="1.778" layer="96">&gt;VALUE</text>
<pin name="1" x="-2.54" y="22.86" visible="pad" length="short" direction="pas" function="dot"/>
<pin name="2" x="5.08" y="22.86" visible="pad" length="short" direction="pas" function="dot" rot="R180"/>
<pin name="3" x="-2.54" y="20.32" visible="pad" length="short" direction="pas" function="dot"/>
<pin name="4" x="5.08" y="20.32" visible="pad" length="short" direction="pas" function="dot" rot="R180"/>
<pin name="5" x="-2.54" y="17.78" visible="pad" length="short" direction="pas" function="dot"/>
<pin name="6" x="5.08" y="17.78" visible="pad" length="short" direction="pas" function="dot" rot="R180"/>
<pin name="7" x="-2.54" y="15.24" visible="pad" length="short" direction="pas" function="dot"/>
<pin name="8" x="5.08" y="15.24" visible="pad" length="short" direction="pas" function="dot" rot="R180"/>
<pin name="9" x="-2.54" y="12.7" visible="pad" length="short" direction="pas" function="dot"/>
<pin name="10" x="5.08" y="12.7" visible="pad" length="short" direction="pas" function="dot" rot="R180"/>
<pin name="11" x="-2.54" y="10.16" visible="pad" length="short" direction="pas" function="dot"/>
<pin name="12" x="5.08" y="10.16" visible="pad" length="short" direction="pas" function="dot" rot="R180"/>
<pin name="13" x="-2.54" y="7.62" visible="pad" length="short" direction="pas" function="dot"/>
<pin name="14" x="5.08" y="7.62" visible="pad" length="short" direction="pas" function="dot" rot="R180"/>
<pin name="15" x="-2.54" y="5.08" visible="pad" length="short" direction="pas" function="dot"/>
<pin name="16" x="5.08" y="5.08" visible="pad" length="short" direction="pas" function="dot" rot="R180"/>
<pin name="17" x="-2.54" y="2.54" visible="pad" length="short" direction="pas" function="dot"/>
<pin name="18" x="5.08" y="2.54" visible="pad" length="short" direction="pas" function="dot" rot="R180"/>
<pin name="19" x="-2.54" y="0" visible="pad" length="short" direction="pas" function="dot"/>
<pin name="20" x="5.08" y="0" visible="pad" length="short" direction="pas" function="dot" rot="R180"/>
<pin name="21" x="-2.54" y="-2.54" visible="pad" length="short" direction="pas" function="dot"/>
<pin name="22" x="5.08" y="-2.54" visible="pad" length="short" direction="pas" function="dot" rot="R180"/>
<pin name="23" x="-2.54" y="-5.08" visible="pad" length="short" direction="pas" function="dot"/>
<pin name="24" x="5.08" y="-5.08" visible="pad" length="short" direction="pas" function="dot" rot="R180"/>
<pin name="25" x="-2.54" y="-7.62" visible="pad" length="short" direction="pas" function="dot"/>
<pin name="26" x="5.08" y="-7.62" visible="pad" length="short" direction="pas" function="dot" rot="R180"/>
<pin name="27" x="-2.54" y="-10.16" visible="pad" length="short" direction="pas" function="dot"/>
<pin name="28" x="5.08" y="-10.16" visible="pad" length="short" direction="pas" function="dot" rot="R180"/>
<pin name="29" x="-2.54" y="-12.7" visible="pad" length="short" direction="pas" function="dot"/>
<pin name="30" x="5.08" y="-12.7" visible="pad" length="short" direction="pas" function="dot" rot="R180"/>
<pin name="31" x="-2.54" y="-15.24" visible="pad" length="short" direction="pas" function="dot"/>
<pin name="32" x="5.08" y="-15.24" visible="pad" length="short" direction="pas" function="dot" rot="R180"/>
<pin name="33" x="-2.54" y="-17.78" visible="pad" length="short" direction="pas" function="dot"/>
<pin name="34" x="5.08" y="-17.78" visible="pad" length="short" direction="pas" function="dot" rot="R180"/>
<pin name="35" x="-2.54" y="-20.32" visible="pad" length="short" direction="pas" function="dot"/>
<pin name="36" x="5.08" y="-20.32" visible="pad" length="short" direction="pas" function="dot" rot="R180"/>
<pin name="37" x="-2.54" y="-22.86" visible="pad" length="short" direction="pas" function="dot"/>
<pin name="38" x="5.08" y="-22.86" visible="pad" length="short" direction="pas" function="dot" rot="R180"/>
<pin name="39" x="-2.54" y="-25.4" visible="pad" length="short" direction="pas" function="dot"/>
<pin name="40" x="5.08" y="-25.4" visible="pad" length="short" direction="pas" function="dot" rot="R180"/>
</symbol>
</symbols>
<devicesets>
<deviceset name="PINHD-2X20" prefix="JP" uservalue="yes">
<description>&lt;b&gt;PIN HEADER&lt;/b&gt;</description>
<gates>
<gate name="A" symbol="PINH2X20" x="0" y="0"/>
</gates>
<devices>
<device name="" package="2X20">
<connects>
<connect gate="A" pin="1" pad="1"/>
<connect gate="A" pin="10" pad="10"/>
<connect gate="A" pin="11" pad="11"/>
<connect gate="A" pin="12" pad="12"/>
<connect gate="A" pin="13" pad="13"/>
<connect gate="A" pin="14" pad="14"/>
<connect gate="A" pin="15" pad="15"/>
<connect gate="A" pin="16" pad="16"/>
<connect gate="A" pin="17" pad="17"/>
<connect gate="A" pin="18" pad="18"/>
<connect gate="A" pin="19" pad="19"/>
<connect gate="A" pin="2" pad="2"/>
<connect gate="A" pin="20" pad="20"/>
<connect gate="A" pin="21" pad="21"/>
<connect gate="A" pin="22" pad="22"/>
<connect gate="A" pin="23" pad="23"/>
<connect gate="A" pin="24" pad="24"/>
<connect gate="A" pin="25" pad="25"/>
<connect gate="A" pin="26" pad="26"/>
<connect gate="A" pin="27" pad="27"/>
<connect gate="A" pin="28" pad="28"/>
<connect gate="A" pin="29" pad="29"/>
<connect gate="A" pin="3" pad="3"/>
<connect gate="A" pin="30" pad="30"/>
<connect gate="A" pin="31" pad="31"/>
<connect gate="A" pin="32" pad="32"/>
<connect gate="A" pin="33" pad="33"/>
<connect gate="A" pin="34" pad="34"/>
<connect gate="A" pin="35" pad="35"/>
<connect gate="A" pin="36" pad="36"/>
<connect gate="A" pin="37" pad="37"/>
<connect gate="A" pin="38" pad="38"/>
<connect gate="A" pin="39" pad="39"/>
<connect gate="A" pin="4" pad="4"/>
<connect gate="A" pin="40" pad="40"/>
<connect gate="A" pin="5" pad="5"/>
<connect gate="A" pin="6" pad="6"/>
<connect gate="A" pin="7" pad="7"/>
<connect gate="A" pin="8" pad="8"/>
<connect gate="A" pin="9" pad="9"/>
</connects>
<technologies>
<technology name=""/>
</technologies>
</device>
<device name="/90" package="2X20/90">
<connects>
<connect gate="A" pin="1" pad="1"/>
<connect gate="A" pin="10" pad="10"/>
<connect gate="A" pin="11" pad="11"/>
<connect gate="A" pin="12" pad="12"/>
<connect gate="A" pin="13" pad="13"/>
<connect gate="A" pin="14" pad="14"/>
<connect gate="A" pin="15" pad="15"/>
<connect gate="A" pin="16" pad="16"/>
<connect gate="A" pin="17" pad="17"/>
<connect gate="A" pin="18" pad="18"/>
<connect gate="A" pin="19" pad="19"/>
<connect gate="A" pin="2" pad="2"/>
<connect gate="A" pin="20" pad="20"/>
<connect gate="A" pin="21" pad="21"/>
<connect gate="A" pin="22" pad="22"/>
<connect gate="A" pin="23" pad="23"/>
<connect gate="A" pin="24" pad="24"/>
<connect gate="A" pin="25" pad="25"/>
<connect gate="A" pin="26" pad="26"/>
<connect gate="A" pin="27" pad="27"/>
<connect gate="A" pin="28" pad="28"/>
<connect gate="A" pin="29" pad="29"/>
<connect gate="A" pin="3" pad="3"/>
<connect gate="A" pin="30" pad="30"/>
<connect gate="A" pin="31" pad="31"/>
<connect gate="A" pin="32" pad="32"/>
<connect gate="A" pin="33" pad="33"/>
<connect gate="A" pin="34" pad="34"/>
<connect gate="A" pin="35" pad="35"/>
<connect gate="A" pin="36" pad="36"/>
<connect gate="A" pin="37" pad="37"/>
<connect gate="A" pin="38" pad="38"/>
<connect gate="A" pin="39" pad="39"/>
<connect gate="A" pin="4" pad="4"/>
<connect gate="A" pin="40" pad="40"/>
<connect gate="A" pin="5" pad="5"/>
<connect gate="A" pin="6" pad="6"/>
<connect gate="A" pin="7" pad="7"/>
<connect gate="A" pin="8" pad="8"/>
<connect gate="A" pin="9" pad="9"/>
</connects>
<technologies>
<technology name=""/>
</technologies>
</device>
</devices>
</deviceset>
</devicesets>
</library>
<library name="con-wago-500">
<description>&lt;b&gt;Wago Screw Clamps&lt;/b&gt;&lt;p&gt;
Grid 5.00 mm&lt;p&gt;
&lt;author&gt;Created by librarian@cadsoft.de&lt;/author&gt;</description>
<packages>
<package name="W237-102">
<description>&lt;b&gt;WAGO SCREW CLAMP&lt;/b&gt;</description>
<wire x1="-3.491" y1="-2.286" x2="-1.484" y2="-0.279" width="0.254" layer="51"/>
<wire x1="1.488" y1="-2.261" x2="3.469" y2="-0.254" width="0.254" layer="51"/>
<wire x1="-4.989" y1="-5.461" x2="4.993" y2="-5.461" width="0.1524" layer="21"/>
<wire x1="4.993" y1="3.734" x2="4.993" y2="3.531" width="0.1524" layer="21"/>
<wire x1="4.993" y1="3.734" x2="-4.989" y2="3.734" width="0.1524" layer="21"/>
<wire x1="-4.989" y1="-5.461" x2="-4.989" y2="-3.073" width="0.1524" layer="21"/>
<wire x1="-4.989" y1="-3.073" x2="-3.389" y2="-3.073" width="0.1524" layer="21"/>
<wire x1="-3.389" y1="-3.073" x2="-1.611" y2="-3.073" width="0.1524" layer="51"/>
<wire x1="-1.611" y1="-3.073" x2="1.615" y2="-3.073" width="0.1524" layer="21"/>
<wire x1="3.393" y1="-3.073" x2="4.993" y2="-3.073" width="0.1524" layer="21"/>
<wire x1="-4.989" y1="-3.073" x2="-4.989" y2="3.531" width="0.1524" layer="21"/>
<wire x1="4.993" y1="-3.073" x2="4.993" y2="-5.461" width="0.1524" layer="21"/>
<wire x1="-4.989" y1="3.531" x2="4.993" y2="3.531" width="0.1524" layer="21"/>
<wire x1="-4.989" y1="3.531" x2="-4.989" y2="3.734" width="0.1524" layer="21"/>
<wire x1="4.993" y1="3.531" x2="4.993" y2="-3.073" width="0.1524" layer="21"/>
<wire x1="1.615" y1="-3.073" x2="3.393" y2="-3.073" width="0.1524" layer="51"/>
<circle x="-2.5" y="-1.27" radius="1.4986" width="0.1524" layer="51"/>
<circle x="-2.5" y="2.2098" radius="0.508" width="0.1524" layer="21"/>
<circle x="2.5038" y="-1.27" radius="1.4986" width="0.1524" layer="51"/>
<circle x="2.5038" y="2.2098" radius="0.508" width="0.1524" layer="21"/>
<pad name="1" x="-2.5" y="-1.27" drill="1.1938" shape="long" rot="R90"/>
<pad name="2" x="2.5" y="-1.27" drill="1.1938" shape="long" rot="R90"/>
<text x="-5.04" y="-7.62" size="1.27" layer="27" ratio="10">&gt;VALUE</text>
<text x="-3.8462" y="-5.0038" size="1.27" layer="25" ratio="10">&gt;NAME</text>
<text x="-4.532" y="0.635" size="1.27" layer="21" ratio="10">1</text>
<text x="0.421" y="0.635" size="1.27" layer="21" ratio="10">2</text>
</package>
</packages>
<symbols>
<symbol name="KL">
<circle x="1.27" y="0" radius="1.27" width="0.254" layer="94"/>
<text x="0" y="0.889" size="1.778" layer="95" rot="R180">&gt;NAME</text>
<pin name="KL" x="5.08" y="0" visible="off" length="short" direction="pas" rot="R180"/>
</symbol>
<symbol name="KL+V">
<circle x="1.27" y="0" radius="1.27" width="0.254" layer="94"/>
<text x="-2.54" y="-3.683" size="1.778" layer="96">&gt;VALUE</text>
<text x="0" y="0.889" size="1.778" layer="95" rot="R180">&gt;NAME</text>
<pin name="KL" x="5.08" y="0" visible="off" length="short" direction="pas" rot="R180"/>
</symbol>
</symbols>
<devicesets>
<deviceset name="W237-102" prefix="X" uservalue="yes">
<description>&lt;b&gt;WAGO SCREW CLAMP&lt;/b&gt;</description>
<gates>
<gate name="-1" symbol="KL" x="0" y="5.08" addlevel="always"/>
<gate name="-2" symbol="KL+V" x="0" y="0" addlevel="always"/>
</gates>
<devices>
<device name="" package="W237-102">
<connects>
<connect gate="-1" pin="KL" pad="1"/>
<connect gate="-2" pin="KL" pad="2"/>
</connects>
<technologies>
<technology name="">
<attribute name="MF" value="" constant="no"/>
<attribute name="MPN" value="237-102" constant="no"/>
<attribute name="OC_FARNELL" value="unknown" constant="no"/>
<attribute name="OC_NEWARK" value="70K9898" constant="no"/>
</technology>
</technologies>
</device>
</devices>
</deviceset>
</devicesets>
</library>
<library name="supply1">
<description>&lt;b&gt;Supply Symbols&lt;/b&gt;&lt;p&gt;
 GND, VCC, 0V, +5V, -5V, etc.&lt;p&gt;
 Please keep in mind, that these devices are necessary for the
 automatic wiring of the supply signals.&lt;p&gt;
 The pin name defined in the symbol is identical to the net which is to be wired automatically.&lt;p&gt;
 In this library the device names are the same as the pin names of the symbols, therefore the correct signal names appear next to the supply symbols in the schematic.&lt;p&gt;
 &lt;author&gt;Created by librarian@cadsoft.de&lt;/author&gt;</description>
<packages>
</packages>
<symbols>
<symbol name="GND">
<wire x1="-1.905" y1="0" x2="1.905" y2="0" width="0.254" layer="94"/>
<text x="-2.54" y="-2.54" size="1.778" layer="96">&gt;VALUE</text>
<pin name="GND" x="0" y="2.54" visible="off" length="short" direction="sup" rot="R270"/>
</symbol>
</symbols>
<devicesets>
<deviceset name="GND" prefix="GND">
<description>&lt;b&gt;SUPPLY SYMBOL&lt;/b&gt;</description>
<gates>
<gate name="1" symbol="GND" x="0" y="0"/>
</gates>
<devices>
<device name="">
<technologies>
<technology name=""/>
</technologies>
</device>
</devices>
</deviceset>
</devicesets>
</library>
</libraries>
<attributes>
</attributes>
<variantdefs>
</variantdefs>
<classes>
<class number="0" name="default" width="0" drill="0">
</class>
</classes>
<parts>
<part name="RPI" library="pinhead" deviceset="PINHD-2X20" device=""/>
<part name="CLOCKPINS" library="pinhead" deviceset="PINHD-2X20" device=""/>
<part name="TEMPPINS" library="pinhead" deviceset="PINHD-2X20" device=""/>
<part name="X1" library="con-wago-500" deviceset="W237-102" device=""/>
<part name="GND1" library="supply1" deviceset="GND" device=""/>
<part name="GND2" library="supply1" deviceset="GND" device=""/>
<part name="X2" library="con-wago-500" deviceset="W237-102" device=""/>
</parts>
<sheets>
<sheet>
<plain>
</plain>
<instances>
<instance part="RPI" gate="A" x="63.5" y="63.5"/>
<instance part="CLOCKPINS" gate="A" x="-20.32" y="60.96"/>
<instance part="TEMPPINS" gate="A" x="154.94" y="63.5"/>
<instance part="X1" gate="-1" x="45.72" y="106.68" rot="R270"/>
<instance part="X1" gate="-2" x="40.64" y="106.68" rot="R270"/>
<instance part="GND1" gate="1" x="15.24" y="20.32"/>
<instance part="GND2" gate="1" x="109.22" y="22.86"/>
<instance part="X2" gate="-1" x="20.32" y="109.22" rot="R270"/>
<instance part="X2" gate="-2" x="15.24" y="109.22" rot="R270"/>
</instances>
<busses>
</busses>
<nets>
<net name="N$1" class="0">
<segment>
<pinref part="RPI" gate="A" pin="3"/>
<pinref part="X1" gate="-1" pin="KL"/>
<wire x1="60.96" y1="83.82" x2="45.72" y2="83.82" width="0.1524" layer="91"/>
<wire x1="45.72" y1="83.82" x2="45.72" y2="101.6" width="0.1524" layer="91"/>
</segment>
</net>
<net name="N$2" class="0">
<segment>
<pinref part="RPI" gate="A" pin="5"/>
<pinref part="X1" gate="-2" pin="KL"/>
<wire x1="60.96" y1="81.28" x2="40.64" y2="81.28" width="0.1524" layer="91"/>
<wire x1="40.64" y1="81.28" x2="40.64" y2="101.6" width="0.1524" layer="91"/>
</segment>
</net>
<net name="N$3" class="0">
<segment>
<pinref part="RPI" gate="A" pin="1"/>
<wire x1="60.96" y1="86.36" x2="53.34" y2="86.36" width="0.1524" layer="91"/>
<wire x1="53.34" y1="86.36" x2="35.56" y2="86.36" width="0.1524" layer="91"/>
<wire x1="35.56" y1="86.36" x2="35.56" y2="96.52" width="0.1524" layer="91"/>
<wire x1="35.56" y1="96.52" x2="15.24" y2="96.52" width="0.1524" layer="91"/>
<wire x1="15.24" y1="96.52" x2="-33.02" y2="96.52" width="0.1524" layer="91"/>
<wire x1="-33.02" y1="96.52" x2="-33.02" y2="83.82" width="0.1524" layer="91"/>
<pinref part="CLOCKPINS" gate="A" pin="1"/>
<wire x1="-33.02" y1="83.82" x2="-22.86" y2="83.82" width="0.1524" layer="91"/>
<pinref part="CLOCKPINS" gate="A" pin="17"/>
<wire x1="-22.86" y1="63.5" x2="-33.02" y2="63.5" width="0.1524" layer="91"/>
<wire x1="-33.02" y1="63.5" x2="-33.02" y2="83.82" width="0.1524" layer="91"/>
<junction x="-33.02" y="83.82"/>
<wire x1="53.34" y1="86.36" x2="53.34" y2="96.52" width="0.1524" layer="91"/>
<junction x="53.34" y="86.36"/>
<wire x1="53.34" y1="96.52" x2="127" y2="96.52" width="0.1524" layer="91"/>
<wire x1="127" y1="96.52" x2="127" y2="86.36" width="0.1524" layer="91"/>
<pinref part="TEMPPINS" gate="A" pin="1"/>
<wire x1="127" y1="86.36" x2="152.4" y2="86.36" width="0.1524" layer="91"/>
<wire x1="127" y1="86.36" x2="127" y2="66.04" width="0.1524" layer="91"/>
<junction x="127" y="86.36"/>
<pinref part="TEMPPINS" gate="A" pin="17"/>
<wire x1="127" y1="66.04" x2="152.4" y2="66.04" width="0.1524" layer="91"/>
<pinref part="X2" gate="-2" pin="KL"/>
<wire x1="15.24" y1="104.14" x2="15.24" y2="96.52" width="0.1524" layer="91"/>
<junction x="15.24" y="96.52"/>
<wire x1="53.34" y1="86.36" x2="53.34" y2="66.04" width="0.1524" layer="91"/>
<pinref part="RPI" gate="A" pin="17"/>
<wire x1="53.34" y1="66.04" x2="60.96" y2="66.04" width="0.1524" layer="91"/>
</segment>
</net>
<net name="GND" class="0">
<segment>
<pinref part="GND1" gate="1" pin="GND"/>
<pinref part="CLOCKPINS" gate="A" pin="34"/>
<wire x1="-15.24" y1="43.18" x2="-10.16" y2="43.18" width="0.1524" layer="91"/>
<wire x1="-10.16" y1="43.18" x2="15.24" y2="43.18" width="0.1524" layer="91"/>
<wire x1="15.24" y1="43.18" x2="15.24" y2="27.94" width="0.1524" layer="91"/>
<pinref part="CLOCKPINS" gate="A" pin="30"/>
<wire x1="15.24" y1="27.94" x2="15.24" y2="22.86" width="0.1524" layer="91"/>
<wire x1="-15.24" y1="48.26" x2="-10.16" y2="48.26" width="0.1524" layer="91"/>
<wire x1="-10.16" y1="48.26" x2="-10.16" y2="43.18" width="0.1524" layer="91"/>
<junction x="-10.16" y="43.18"/>
<pinref part="CLOCKPINS" gate="A" pin="20"/>
<wire x1="-15.24" y1="60.96" x2="-10.16" y2="60.96" width="0.1524" layer="91"/>
<wire x1="-10.16" y1="60.96" x2="-10.16" y2="48.26" width="0.1524" layer="91"/>
<junction x="-10.16" y="48.26"/>
<pinref part="CLOCKPINS" gate="A" pin="14"/>
<wire x1="-15.24" y1="68.58" x2="-10.16" y2="68.58" width="0.1524" layer="91"/>
<wire x1="-10.16" y1="68.58" x2="-10.16" y2="60.96" width="0.1524" layer="91"/>
<junction x="-10.16" y="60.96"/>
<pinref part="CLOCKPINS" gate="A" pin="6"/>
<wire x1="-15.24" y1="78.74" x2="-10.16" y2="78.74" width="0.1524" layer="91"/>
<wire x1="-10.16" y1="78.74" x2="-10.16" y2="68.58" width="0.1524" layer="91"/>
<junction x="-10.16" y="68.58"/>
<pinref part="CLOCKPINS" gate="A" pin="9"/>
<wire x1="-22.86" y1="73.66" x2="-27.94" y2="73.66" width="0.1524" layer="91"/>
<wire x1="-27.94" y1="73.66" x2="-27.94" y2="53.34" width="0.1524" layer="91"/>
<wire x1="-27.94" y1="53.34" x2="-27.94" y2="35.56" width="0.1524" layer="91"/>
<wire x1="-27.94" y1="35.56" x2="-27.94" y2="27.94" width="0.1524" layer="91"/>
<wire x1="-27.94" y1="27.94" x2="15.24" y2="27.94" width="0.1524" layer="91"/>
<junction x="15.24" y="27.94"/>
<pinref part="CLOCKPINS" gate="A" pin="25"/>
<wire x1="-22.86" y1="53.34" x2="-27.94" y2="53.34" width="0.1524" layer="91"/>
<junction x="-27.94" y="53.34"/>
<pinref part="CLOCKPINS" gate="A" pin="39"/>
<wire x1="-22.86" y1="35.56" x2="-27.94" y2="35.56" width="0.1524" layer="91"/>
<junction x="-27.94" y="35.56"/>
<pinref part="X2" gate="-1" pin="KL"/>
<wire x1="20.32" y1="104.14" x2="17.78" y2="104.14" width="0.1524" layer="91"/>
<wire x1="17.78" y1="104.14" x2="17.78" y2="50.8" width="0.1524" layer="91"/>
<wire x1="17.78" y1="50.8" x2="15.24" y2="50.8" width="0.1524" layer="91"/>
<wire x1="15.24" y1="50.8" x2="15.24" y2="43.18" width="0.1524" layer="91"/>
<junction x="15.24" y="43.18"/>
</segment>
<segment>
<pinref part="RPI" gate="A" pin="9"/>
<wire x1="60.96" y1="76.2" x2="55.88" y2="76.2" width="0.1524" layer="91"/>
<wire x1="55.88" y1="76.2" x2="55.88" y2="55.88" width="0.1524" layer="91"/>
<pinref part="GND2" gate="1" pin="GND"/>
<wire x1="55.88" y1="55.88" x2="55.88" y2="38.1" width="0.1524" layer="91"/>
<wire x1="55.88" y1="38.1" x2="55.88" y2="27.94" width="0.1524" layer="91"/>
<wire x1="55.88" y1="27.94" x2="73.66" y2="27.94" width="0.1524" layer="91"/>
<wire x1="73.66" y1="27.94" x2="109.22" y2="27.94" width="0.1524" layer="91"/>
<wire x1="109.22" y1="27.94" x2="109.22" y2="25.4" width="0.1524" layer="91"/>
<pinref part="RPI" gate="A" pin="25"/>
<wire x1="60.96" y1="55.88" x2="55.88" y2="55.88" width="0.1524" layer="91"/>
<junction x="55.88" y="55.88"/>
<pinref part="RPI" gate="A" pin="39"/>
<wire x1="60.96" y1="38.1" x2="55.88" y2="38.1" width="0.1524" layer="91"/>
<junction x="55.88" y="38.1"/>
<pinref part="RPI" gate="A" pin="6"/>
<wire x1="68.58" y1="81.28" x2="73.66" y2="81.28" width="0.1524" layer="91"/>
<wire x1="73.66" y1="81.28" x2="73.66" y2="71.12" width="0.1524" layer="91"/>
<junction x="73.66" y="27.94"/>
<pinref part="RPI" gate="A" pin="14"/>
<wire x1="73.66" y1="71.12" x2="73.66" y2="63.5" width="0.1524" layer="91"/>
<wire x1="73.66" y1="63.5" x2="73.66" y2="50.8" width="0.1524" layer="91"/>
<wire x1="73.66" y1="50.8" x2="73.66" y2="45.72" width="0.1524" layer="91"/>
<wire x1="73.66" y1="45.72" x2="73.66" y2="27.94" width="0.1524" layer="91"/>
<wire x1="68.58" y1="71.12" x2="73.66" y2="71.12" width="0.1524" layer="91"/>
<junction x="73.66" y="71.12"/>
<pinref part="RPI" gate="A" pin="20"/>
<wire x1="68.58" y1="63.5" x2="73.66" y2="63.5" width="0.1524" layer="91"/>
<junction x="73.66" y="63.5"/>
<pinref part="RPI" gate="A" pin="30"/>
<wire x1="68.58" y1="50.8" x2="73.66" y2="50.8" width="0.1524" layer="91"/>
<junction x="73.66" y="50.8"/>
<pinref part="RPI" gate="A" pin="34"/>
<wire x1="68.58" y1="45.72" x2="73.66" y2="45.72" width="0.1524" layer="91"/>
<junction x="73.66" y="45.72"/>
<pinref part="TEMPPINS" gate="A" pin="6"/>
<wire x1="160.02" y1="81.28" x2="165.1" y2="81.28" width="0.1524" layer="91"/>
<wire x1="165.1" y1="81.28" x2="165.1" y2="71.12" width="0.1524" layer="91"/>
<wire x1="165.1" y1="71.12" x2="165.1" y2="63.5" width="0.1524" layer="91"/>
<wire x1="165.1" y1="63.5" x2="165.1" y2="50.8" width="0.1524" layer="91"/>
<wire x1="165.1" y1="50.8" x2="165.1" y2="45.72" width="0.1524" layer="91"/>
<wire x1="165.1" y1="45.72" x2="165.1" y2="33.02" width="0.1524" layer="91"/>
<wire x1="165.1" y1="33.02" x2="147.32" y2="33.02" width="0.1524" layer="91"/>
<wire x1="147.32" y1="33.02" x2="109.22" y2="33.02" width="0.1524" layer="91"/>
<wire x1="109.22" y1="33.02" x2="109.22" y2="27.94" width="0.1524" layer="91"/>
<junction x="109.22" y="27.94"/>
<pinref part="TEMPPINS" gate="A" pin="14"/>
<wire x1="160.02" y1="71.12" x2="165.1" y2="71.12" width="0.1524" layer="91"/>
<junction x="165.1" y="71.12"/>
<pinref part="TEMPPINS" gate="A" pin="20"/>
<wire x1="160.02" y1="63.5" x2="165.1" y2="63.5" width="0.1524" layer="91"/>
<junction x="165.1" y="63.5"/>
<pinref part="TEMPPINS" gate="A" pin="30"/>
<wire x1="160.02" y1="50.8" x2="165.1" y2="50.8" width="0.1524" layer="91"/>
<junction x="165.1" y="50.8"/>
<pinref part="TEMPPINS" gate="A" pin="34"/>
<wire x1="160.02" y1="45.72" x2="165.1" y2="45.72" width="0.1524" layer="91"/>
<junction x="165.1" y="45.72"/>
<pinref part="TEMPPINS" gate="A" pin="39"/>
<wire x1="152.4" y1="38.1" x2="147.32" y2="38.1" width="0.1524" layer="91"/>
<wire x1="147.32" y1="38.1" x2="147.32" y2="33.02" width="0.1524" layer="91"/>
<junction x="147.32" y="33.02"/>
<pinref part="TEMPPINS" gate="A" pin="25"/>
<wire x1="152.4" y1="55.88" x2="147.32" y2="55.88" width="0.1524" layer="91"/>
<wire x1="147.32" y1="55.88" x2="147.32" y2="38.1" width="0.1524" layer="91"/>
<junction x="147.32" y="38.1"/>
<pinref part="TEMPPINS" gate="A" pin="9"/>
<wire x1="152.4" y1="76.2" x2="147.32" y2="76.2" width="0.1524" layer="91"/>
<wire x1="147.32" y1="76.2" x2="147.32" y2="55.88" width="0.1524" layer="91"/>
<junction x="147.32" y="55.88"/>
</segment>
</net>
<net name="CLOCKA" class="0">
<segment>
<pinref part="CLOCKPINS" gate="A" pin="7"/>
<wire x1="-22.86" y1="76.2" x2="-45.72" y2="76.2" width="0.1524" layer="91"/>
<label x="-45.72" y="76.2" size="1.778" layer="95" rot="R180" xref="yes"/>
</segment>
<segment>
<pinref part="RPI" gate="A" pin="7"/>
<wire x1="60.96" y1="78.74" x2="38.1" y2="78.74" width="0.1524" layer="91"/>
<label x="38.1" y="78.74" size="1.778" layer="95" rot="R180" xref="yes"/>
</segment>
</net>
<net name="CLOCKB" class="0">
<segment>
<pinref part="CLOCKPINS" gate="A" pin="11"/>
<wire x1="-22.86" y1="71.12" x2="-45.72" y2="71.12" width="0.1524" layer="91"/>
<label x="-45.72" y="71.12" size="1.778" layer="95" rot="R180" xref="yes"/>
</segment>
<segment>
<pinref part="RPI" gate="A" pin="11"/>
<wire x1="60.96" y1="73.66" x2="38.1" y2="73.66" width="0.1524" layer="91"/>
<label x="38.1" y="73.66" size="1.778" layer="95" rot="R180" xref="yes"/>
</segment>
</net>
<net name="CLOCKC" class="0">
<segment>
<pinref part="CLOCKPINS" gate="A" pin="13"/>
<wire x1="-22.86" y1="68.58" x2="-45.72" y2="68.58" width="0.1524" layer="91"/>
<label x="-45.72" y="68.58" size="1.778" layer="95" rot="R180" xref="yes"/>
</segment>
<segment>
<pinref part="RPI" gate="A" pin="13"/>
<wire x1="60.96" y1="71.12" x2="38.1" y2="71.12" width="0.1524" layer="91"/>
<label x="38.1" y="71.12" size="1.778" layer="95" rot="R180" xref="yes"/>
</segment>
</net>
<net name="CLOCKD" class="0">
<segment>
<pinref part="CLOCKPINS" gate="A" pin="15"/>
<wire x1="-22.86" y1="66.04" x2="-45.72" y2="66.04" width="0.1524" layer="91"/>
<label x="-45.72" y="66.04" size="1.778" layer="95" rot="R180" xref="yes"/>
</segment>
<segment>
<pinref part="RPI" gate="A" pin="15"/>
<wire x1="60.96" y1="68.58" x2="38.1" y2="68.58" width="0.1524" layer="91"/>
<label x="38.1" y="68.58" size="1.778" layer="95" rot="R180" xref="yes"/>
</segment>
</net>
<net name="CLOCKLD1" class="0">
<segment>
<pinref part="CLOCKPINS" gate="A" pin="19"/>
<wire x1="-22.86" y1="60.96" x2="-45.72" y2="60.96" width="0.1524" layer="91"/>
<label x="-45.72" y="60.96" size="1.778" layer="95" rot="R180" xref="yes"/>
</segment>
<segment>
<pinref part="RPI" gate="A" pin="19"/>
<wire x1="60.96" y1="63.5" x2="38.1" y2="63.5" width="0.1524" layer="91"/>
<label x="38.1" y="63.5" size="1.778" layer="95" rot="R180" xref="yes"/>
</segment>
</net>
<net name="CLOCKLD2" class="0">
<segment>
<pinref part="CLOCKPINS" gate="A" pin="21"/>
<wire x1="-22.86" y1="58.42" x2="-45.72" y2="58.42" width="0.1524" layer="91"/>
<label x="-45.72" y="58.42" size="1.778" layer="95" rot="R180" xref="yes"/>
</segment>
<segment>
<pinref part="RPI" gate="A" pin="21"/>
<wire x1="60.96" y1="60.96" x2="38.1" y2="60.96" width="0.1524" layer="91"/>
<label x="38.1" y="60.96" size="1.778" layer="95" rot="R180" xref="yes"/>
</segment>
</net>
<net name="CLOCKLD3" class="0">
<segment>
<pinref part="CLOCKPINS" gate="A" pin="23"/>
<wire x1="-22.86" y1="55.88" x2="-45.72" y2="55.88" width="0.1524" layer="91"/>
<label x="-45.72" y="55.88" size="1.778" layer="95" rot="R180" xref="yes"/>
</segment>
<segment>
<pinref part="RPI" gate="A" pin="23"/>
<wire x1="60.96" y1="58.42" x2="38.1" y2="58.42" width="0.1524" layer="91"/>
<label x="38.1" y="58.42" size="1.778" layer="95" rot="R180" xref="yes"/>
</segment>
</net>
<net name="CLOCKLD4" class="0">
<segment>
<pinref part="CLOCKPINS" gate="A" pin="29"/>
<wire x1="-22.86" y1="48.26" x2="-45.72" y2="48.26" width="0.1524" layer="91"/>
<label x="-45.72" y="48.26" size="1.778" layer="95" rot="R180" xref="yes"/>
</segment>
<segment>
<pinref part="RPI" gate="A" pin="29"/>
<wire x1="60.96" y1="50.8" x2="38.1" y2="50.8" width="0.1524" layer="91"/>
<label x="38.1" y="50.8" size="1.778" layer="95" rot="R180" xref="yes"/>
</segment>
</net>
<net name="TEMPLD1" class="0">
<segment>
<pinref part="TEMPPINS" gate="A" pin="8"/>
<wire x1="160.02" y1="78.74" x2="175.26" y2="78.74" width="0.1524" layer="91"/>
<label x="175.26" y="78.74" size="1.778" layer="95" xref="yes"/>
</segment>
<segment>
<pinref part="RPI" gate="A" pin="8"/>
<wire x1="68.58" y1="78.74" x2="81.28" y2="78.74" width="0.1524" layer="91"/>
<label x="81.28" y="78.74" size="1.778" layer="95" xref="yes"/>
</segment>
</net>
<net name="TEMPLD2" class="0">
<segment>
<pinref part="TEMPPINS" gate="A" pin="10"/>
<wire x1="160.02" y1="76.2" x2="175.26" y2="76.2" width="0.1524" layer="91"/>
<label x="175.26" y="76.2" size="1.778" layer="95" xref="yes"/>
</segment>
<segment>
<pinref part="RPI" gate="A" pin="10"/>
<wire x1="68.58" y1="76.2" x2="81.28" y2="76.2" width="0.1524" layer="91"/>
<label x="81.28" y="76.2" size="1.778" layer="95" xref="yes"/>
</segment>
</net>
<net name="TEMPLD3" class="0">
<segment>
<pinref part="TEMPPINS" gate="A" pin="12"/>
<wire x1="160.02" y1="73.66" x2="175.26" y2="73.66" width="0.1524" layer="91"/>
<label x="175.26" y="73.66" size="1.778" layer="95" xref="yes"/>
</segment>
<segment>
<pinref part="RPI" gate="A" pin="12"/>
<wire x1="68.58" y1="73.66" x2="81.28" y2="73.66" width="0.1524" layer="91"/>
<label x="81.28" y="73.66" size="1.778" layer="95" xref="yes"/>
</segment>
</net>
<net name="TEMPA" class="0">
<segment>
<pinref part="TEMPPINS" gate="A" pin="16"/>
<wire x1="160.02" y1="68.58" x2="175.26" y2="68.58" width="0.1524" layer="91"/>
<label x="175.26" y="68.58" size="1.778" layer="95" xref="yes"/>
</segment>
<segment>
<pinref part="RPI" gate="A" pin="16"/>
<wire x1="68.58" y1="68.58" x2="81.28" y2="68.58" width="0.1524" layer="91"/>
<label x="81.28" y="68.58" size="1.778" layer="95" xref="yes"/>
</segment>
</net>
<net name="TEMPB" class="0">
<segment>
<pinref part="TEMPPINS" gate="A" pin="18"/>
<wire x1="160.02" y1="66.04" x2="175.26" y2="66.04" width="0.1524" layer="91"/>
<label x="175.26" y="66.04" size="1.778" layer="95" xref="yes"/>
</segment>
<segment>
<pinref part="RPI" gate="A" pin="18"/>
<wire x1="68.58" y1="66.04" x2="81.28" y2="66.04" width="0.1524" layer="91"/>
<label x="81.28" y="66.04" size="1.778" layer="95" xref="yes"/>
</segment>
</net>
<net name="TEMPC" class="0">
<segment>
<pinref part="TEMPPINS" gate="A" pin="22"/>
<wire x1="160.02" y1="60.96" x2="175.26" y2="60.96" width="0.1524" layer="91"/>
<label x="175.26" y="60.96" size="1.778" layer="95" xref="yes"/>
</segment>
<segment>
<pinref part="RPI" gate="A" pin="22"/>
<wire x1="68.58" y1="60.96" x2="81.28" y2="60.96" width="0.1524" layer="91"/>
<label x="81.28" y="60.96" size="1.778" layer="95" xref="yes"/>
</segment>
</net>
<net name="TEMPD" class="0">
<segment>
<pinref part="TEMPPINS" gate="A" pin="24"/>
<wire x1="160.02" y1="58.42" x2="175.26" y2="58.42" width="0.1524" layer="91"/>
<label x="175.26" y="58.42" size="1.778" layer="95" xref="yes"/>
</segment>
<segment>
<pinref part="RPI" gate="A" pin="24"/>
<wire x1="68.58" y1="58.42" x2="81.28" y2="58.42" width="0.1524" layer="91"/>
<label x="81.28" y="58.42" size="1.778" layer="95" xref="yes"/>
</segment>
</net>
<net name="TEMPFSIGN" class="0">
<segment>
<pinref part="TEMPPINS" gate="A" pin="32"/>
<wire x1="160.02" y1="48.26" x2="175.26" y2="48.26" width="0.1524" layer="91"/>
<label x="175.26" y="48.26" size="1.778" layer="95" xref="yes"/>
</segment>
<segment>
<pinref part="RPI" gate="A" pin="32"/>
<wire x1="68.58" y1="48.26" x2="81.28" y2="48.26" width="0.1524" layer="91"/>
<label x="81.28" y="48.26" size="1.778" layer="95" xref="yes"/>
</segment>
</net>
<net name="TEMPMINUS" class="0">
<segment>
<pinref part="TEMPPINS" gate="A" pin="26"/>
<wire x1="160.02" y1="55.88" x2="175.26" y2="55.88" width="0.1524" layer="91"/>
<label x="175.26" y="55.88" size="1.778" layer="95" xref="yes"/>
</segment>
<segment>
<pinref part="RPI" gate="A" pin="26"/>
<wire x1="68.58" y1="55.88" x2="81.28" y2="55.88" width="0.1524" layer="91"/>
<label x="81.28" y="55.88" size="1.778" layer="95" xref="yes"/>
</segment>
</net>
<net name="TEMPCSIGN" class="0">
<segment>
<pinref part="TEMPPINS" gate="A" pin="36"/>
<wire x1="160.02" y1="43.18" x2="175.26" y2="43.18" width="0.1524" layer="91"/>
<label x="175.26" y="43.18" size="1.778" layer="95" xref="yes"/>
</segment>
<segment>
<pinref part="RPI" gate="A" pin="36"/>
<wire x1="68.58" y1="43.18" x2="81.28" y2="43.18" width="0.1524" layer="91"/>
<label x="81.28" y="43.18" size="1.778" layer="95" xref="yes"/>
</segment>
</net>
</nets>
</sheet>
</sheets>
</schematic>
</drawing>
</eagle>
